0205NPU/output/pool_tb.vcd
$date
	Wed Mar  4 07:01:56 2026
$end
$version
	Icarus Verilog
$end
$timescale
	1s
$end
$scope module testbench_POOL $end
$var wire 9 ! wr_addr_sram [8:0] $end
$var wire 1 " working $end
$var wire 9 # rd_addr_sram [8:0] $end
$var wire 1 $ o_wr_en $end
$var wire 16 % o_wr_dat [15:0] $end
$var wire 42 & o_wr_addr [41:0] $end
$var wire 1 ' o_rd_en $end
$var wire 42 ( o_rd_addr [41:0] $end
$var wire 1 ) i_rd_dat_vld $end
$var wire 16 * i_rd_dat_out [15:0] $end
$var wire 1 + done $end
$var parameter 32 , DEPTH $end
$var parameter 32 - SRAM_ADDR_W $end
$var reg 20 . cfg_CHin [19:0] $end
$var reg 20 / cfg_CHout [19:0] $end
$var reg 10 0 cfg_Hin [9:0] $end
$var reg 10 1 cfg_Hout [9:0] $end
$var reg 4 2 cfg_Kx [3:0] $end
$var reg 4 3 cfg_Ky [3:0] $end
$var reg 4 4 cfg_Px [3:0] $end
$var reg 4 5 cfg_Py [3:0] $end
$var reg 4 6 cfg_Sx [3:0] $end
$var reg 4 7 cfg_Sy [3:0] $end
$var reg 10 8 cfg_Win [9:0] $end
$var reg 10 9 cfg_Wout [9:0] $end
$var reg 1 : start $end
$var reg 1 ; clk $end
$var reg 1 < flag $end
$var reg 1 = rst_n $end
$scope module u_dat_SRAM $end
$var wire 9 > rd_addr [8:0] $end
$var wire 1 ; rd_clk $end
$var wire 1 = rd_rst_n $end
$var wire 9 ? wr_addr [8:0] $end
$var wire 1 ; wr_clk $end
$var wire 1 = wr_rst_n $end
$var wire 1 $ wr_en $end
$var wire 16 @ wr_dat [15:0] $end
$var wire 1 ' rd_en $end
$var wire 16 A rd_dat_out [15:0] $end
$var parameter 32 B DATA_WIDTH $end
$var parameter 32 C DEPTH $end
$var parameter 32 D log2_DEPTH $end
$var reg 16 E rd_dat_r [15:0] $end
$var reg 1 ) rd_dat_vld $end
$upscope $end
$scope module u_pool $end
$var wire 1 ; clk $end
$var wire 20 F i_cfg_CHin [19:0] $end
$var wire 20 G i_cfg_CHout [19:0] $end
$var wire 10 H i_cfg_Hin [9:0] $end
$var wire 10 I i_cfg_Hout [9:0] $end
$var wire 4 J i_cfg_Kx [3:0] $end
$var wire 4 K i_cfg_Ky [3:0] $end
$var wire 4 L i_cfg_Px [3:0] $end
$var wire 4 M i_cfg_Py [3:0] $end
$var wire 4 N i_cfg_Sx [3:0] $end
$var wire 4 O i_cfg_Sy [3:0] $end
$var wire 10 P i_cfg_Win [9:0] $end
$var wire 10 Q i_cfg_Wout [9:0] $end
$var wire 16 R i_rd_dat_out [15:0] $end
$var wire 1 ) i_rd_dat_vld $end
$var wire 16 S rd_dat [15:0] $end
$var wire 1 = rst_n $end
$var wire 1 : start $end
$var wire 1 " working $end
$var wire 1 T win_last_d1 $end
$var wire 1 U win_first_d1 $end
$var wire 1 $ o_wr_en $end
$var wire 16 V o_wr_dat [15:0] $end
$var wire 42 W o_wr_addr [41:0] $end
$var wire 1 ' o_rd_en $end
$var wire 42 X o_rd_addr [41:0] $end
$var wire 1 + done $end
$var wire 1 Y cal_out_vld $end
$var wire 16 Z cal_out_dat [15:0] $end
$var wire 42 [ addr_out_d1 [41:0] $end
$scope module u0_rd $end
$var wire 1 ; clk $end
$var wire 1 + done $end
$var wire 20 \ i_cfg_CHin [19:0] $end
$var wire 20 ] i_cfg_CHout [19:0] $end
$var wire 10 ^ i_cfg_Hin [9:0] $end
$var wire 10 _ i_cfg_Hout [9:0] $end
$var wire 4 ` i_cfg_Kx [3:0] $end
$var wire 4 a i_cfg_Ky [3:0] $end
$var wire 4 b i_cfg_Px [3:0] $end
$var wire 4 c i_cfg_Py [3:0] $end
$var wire 4 d i_cfg_Sx [3:0] $end
$var wire 4 e i_cfg_Sy [3:0] $end
$var wire 10 f i_cfg_Win [9:0] $end
$var wire 10 g i_cfg_Wout [9:0] $end
$var wire 1 h in_valid $end
$var wire 1 i last_window $end
$var wire 42 j o_rd_addr [41:0] $end
$var wire 1 ' o_rd_en $end
$var wire 1 U o_win_first $end
$var wire 1 T o_win_last $end
$var wire 42 k o_wr_addr [41:0] $end
$var wire 1 = rst_n $end
$var wire 1 : start $end
$var wire 1 l start_pulse $end
$var wire 1 m win_first $end
$var wire 1 n win_last $end
$var wire 1 " working $end
$var wire 1 o win_last_d1 $end
$var wire 1 p win_first_d1 $end
$var wire 1 q running_next $end
$var wire 1 r running $end
$var wire 10 s ow_next [9:0] $end
$var wire 1 t ow_last $end
$var wire 10 u ow_cnt [9:0] $end
$var wire 42 v out_base [41:0] $end
$var wire 10 w oh_next [9:0] $end
$var wire 1 x oh_last $end
$var wire 10 y oh_cnt [9:0] $end
$var wire 1 z last_window_d1 $end
$var wire 4 { ky_next [3:0] $end
$var wire 1 | ky_last $end
$var wire 4 } ky_cnt [3:0] $end
$var wire 4 ~ kx_next [3:0] $end
$var wire 1 !" kx_last $end
$var wire 4 "" kx_cnt [3:0] $end
$var wire 10 #" iw_u [9:0] $end
$var wire 32 $" iw [31:0] $end
$var wire 10 %" ih_u [9:0] $end
$var wire 32 &" ih [31:0] $end
$var wire 20 '" ch_next [19:0] $end
$var wire 1 (" ch_last $end
$var wire 20 )" ch_cnt [19:0] $end
$var wire 42 *" addr_out_d1 [41:0] $end
$var wire 42 +" addr_out [41:0] $end
$var wire 42 ," addr_in_calc [41:0] $end
$var wire 42 -" addr_in [41:0] $end
$scope module u_addr_out_d1 $end
$var wire 1 ; clk $end
$var wire 42 ." dnxt [41:0] $end
$var wire 1 /" lden $end
$var wire 1 = rst_n $end
$var wire 42 0" qout [41:0] $end
$var parameter 35 1" DW $end
$var reg 42 2" qout_r [41:0] $end
$scope begin DFFLR_PROC $end
$upscope $end
$upscope $end
$scope module u_ch $end
$var wire 1 ; clk $end
$var wire 20 3" dnxt [19:0] $end
$var wire 1 4" lden $end
$var wire 1 = rst_n $end
$var wire 20 5" qout [19:0] $end
$var parameter 32 6" DW $end
$var reg 20 7" qout_r [19:0] $end
$scope begin DFFLR_PROC $end
$upscope $end
$upscope $end
$scope module u_kx $end
$var wire 1 ; clk $end
$var wire 4 8" dnxt [3:0] $end
$var wire 1 9" lden $end
$var wire 1 = rst_n $end
$var wire 4 :" qout [3:0] $end
$var parameter 32 ;" DW $end
$var reg 4 <" qout_r [3:0] $end
$scope begin DFFLR_PROC $end
$upscope $end
$upscope $end
$scope module u_ky $end
$var wire 1 ; clk $end
$var wire 4 =" dnxt [3:0] $end
$var wire 1 >" lden $end
$var wire 1 = rst_n $end
$var wire 4 ?" qout [3:0] $end
$var parameter 32 @" DW $end
$var reg 4 A" qout_r [3:0] $end
$scope begin DFFLR_PROC $end
$upscope $end
$upscope $end
$scope module u_last_window_d1 $end
$var wire 1 ; clk $end
$var wire 1 i dnxt $end
$var wire 1 B" lden $end
$var wire 1 = rst_n $end
$var wire 1 z qout $end
$var parameter 32 C" DW $end
$var reg 1 z qout_r $end
$scope begin DFFLR_PROC $end
$upscope $end
$upscope $end
$scope module u_oh $end
$var wire 1 ; clk $end
$var wire 10 D" dnxt [9:0] $end
$var wire 1 E" lden $end
$var wire 1 = rst_n $end
$var wire 10 F" qout [9:0] $end
$var parameter 32 G" DW $end
$var reg 10 H" qout_r [9:0] $end
$scope begin DFFLR_PROC $end
$upscope $end
$upscope $end
$scope module u_ow $end
$var wire 1 ; clk $end
$var wire 10 I" dnxt [9:0] $end
$var wire 1 J" lden $end
$var wire 1 = rst_n $end
$var wire 10 K" qout [9:0] $end
$var parameter 32 L" DW $end
$var reg 10 M" qout_r [9:0] $end
$scope begin DFFLR_PROC $end
$upscope $end
$upscope $end
$scope module u_running $end
$var wire 1 ; clk $end
$var wire 1 q dnxt $end
$var wire 1 N" lden $end
$var wire 1 = rst_n $end
$var wire 1 r qout $end
$var parameter 32 O" DW $end
$var reg 1 r qout_r $end
$scope begin DFFLR_PROC $end
$upscope $end
$upscope $end
$scope module u_win_first_d1 $end
$var wire 1 ; clk $end
$var wire 1 m dnxt $end
$var wire 1 P" lden $end
$var wire 1 = rst_n $end
$var wire 1 p qout $end
$var parameter 32 Q" DW $end
$var reg 1 p qout_r $end
$scope begin DFFLR_PROC $end
$upscope $end
$upscope $end
$scope module u_win_last_d1 $end
$var wire 1 ; clk $end
$var wire 1 n dnxt $end
$var wire 1 R" lden $end
$var wire 1 = rst_n $end
$var wire 1 o qout $end
$var parameter 32 S" DW $end
$var reg 1 o qout_r $end
$scope begin DFFLR_PROC $end
$upscope $end
$upscope $end
$upscope $end
$scope module u1_cal $end
$var wire 1 ; clk $end
$var wire 1 T" done $end
$var wire 20 U" i_cfg_CHin [19:0] $end
$var wire 20 V" i_cfg_CHout [19:0] $end
$var wire 10 W" i_cfg_Hin [9:0] $end
$var wire 10 X" i_cfg_Hout [9:0] $end
$var wire 4 Y" i_cfg_Kx [3:0] $end
$var wire 4 Z" i_cfg_Ky [3:0] $end
$var wire 4 [" i_cfg_Px [3:0] $end
$var wire 4 \" i_cfg_Py [3:0] $end
$var wire 4 ]" i_cfg_Sx [3:0] $end
$var wire 4 ^" i_cfg_Sy [3:0] $end
$var wire 10 _" i_cfg_Win [9:0] $end
$var wire 10 `" i_cfg_Wout [9:0] $end
$var wire 16 a" i_dat_in_pkt [15:0] $end
$var wire 1 ) i_dat_in_vld $end
$var wire 1 U i_win_first $end
$var wire 1 T i_win_last $end
$var wire 1 b" max_en $end
$var wire 1 c" max_update $end
$var wire 16 d" o_dat_out_pkt [15:0] $end
$var wire 1 Y o_dat_out_vld $end
$var wire 1 = rst_n $end
$var wire 1 : start $end
$var wire 1 e" working $end
$var wire 16 f" out_next [15:0] $end
$var wire 16 g" max_val [15:0] $end
$var wire 16 h" max_next [15:0] $end
$var parameter 16 i" MIN_SIGNED $end
$scope module u_max_val $end
$var wire 1 ; clk $end
$var wire 16 j" dnxt [15:0] $end
$var wire 1 b" lden $end
$var wire 1 = rst_n $end
$var wire 16 k" qout [15:0] $end
$var parameter 32 l" DW $end
$var reg 16 m" qout_r [15:0] $end
$scope begin DFFLR_PROC $end
$upscope $end
$upscope $end
$upscope $end
$scope module u2_wr $end
$var wire 1 ; clk $end
$var wire 1 n" done $end
$var wire 20 o" i_cfg_CHin [19:0] $end
$var wire 20 p" i_cfg_CHout [19:0] $end
$var wire 10 q" i_cfg_Hin [9:0] $end
$var wire 10 r" i_cfg_Hout [9:0] $end
$var wire 4 s" i_cfg_Kx [3:0] $end
$var wire 4 t" i_cfg_Ky [3:0] $end
$var wire 4 u" i_cfg_Px [3:0] $end
$var wire 4 v" i_cfg_Py [3:0] $end
$var wire 4 w" i_cfg_Sx [3:0] $end
$var wire 4 x" i_cfg_Sy [3:0] $end
$var wire 10 y" i_cfg_Win [9:0] $end
$var wire 10 z" i_cfg_Wout [9:0] $end
$var wire 42 {" i_wr_addr [41:0] $end
$var wire 16 |" i_wr_dat [15:0] $end
$var wire 1 Y i_wr_vld $end
$var wire 1 }" last_wr $end
$var wire 42 ~" o_wr_addr [41:0] $end
$var wire 16 !# o_wr_dat [15:0] $end
$var wire 1 $ o_wr_en $end
$var wire 1 = rst_n $end
$var wire 1 : start $end
$var wire 1 "# start_pulse $end
$var wire 1 ## working $end
$var wire 1 $# wr_fire $end
$var wire 42 %# wr_cnt_next [41:0] $end
$var wire 42 &# wr_cnt [41:0] $end
$var wire 42 '# total_wr_num_m1 [41:0] $end
$var wire 42 (# total_wr_num [41:0] $end
$var wire 1 )# running_next $end
$var wire 1 *# running $end
$scope module u_running $end
$var wire 1 ; clk $end
$var wire 1 )# dnxt $end
$var wire 1 +# lden $end
$var wire 1 = rst_n $end
$var wire 1 *# qout $end
$var parameter 32 ,# DW $end
$var reg 1 *# qout_r $end
$scope begin DFFLR_PROC $end
$upscope $end
$upscope $end
$scope module u_wr_cnt $end
$var wire 1 ; clk $end
$var wire 42 -# dnxt [41:0] $end
$var wire 1 .# lden $end
$var wire 1 = rst_n $end
$var wire 42 /# qout [41:0] $end
$var parameter 35 0# DW $end
$var reg 42 1# qout_r [41:0] $end
$scope begin DFFLR_PROC $end
$upscope $end
$upscope $end
$upscope $end
$upscope $end
$scope begin $ivl_for_loop11 $end
$var integer 32 2# ch [31:0] $end
$scope begin $ivl_for_loop12 $end
$var integer 32 3# oh [31:0] $end
$scope begin $ivl_for_loop13 $end
$var integer 32 4# ow [31:0] $end
$scope begin $unm_blk_11 $end
$var integer 32 5# addr [31:0] $end
$var integer 32 6# out_base [31:0] $end
$upscope $end
$upscope $end
$upscope $end
$upscope $end
$scope begin $ivl_for_loop14 $end
$var integer 32 7# ch [31:0] $end
$scope begin $ivl_for_loop15 $end
$var integer 32 8# oh [31:0] $end
$scope begin $ivl_for_loop16 $end
$var integer 32 9# ow [31:0] $end
$upscope $end
$upscope $end
$upscope $end
$scope begin $ivl_for_loop5 $end
$var integer 32 :# ch [31:0] $end
$scope begin $ivl_for_loop6 $end
$var integer 32 ;# h [31:0] $end
$scope begin $ivl_for_loop7 $end
$var integer 32 <# w [31:0] $end
$upscope $end
$upscope $end
$upscope $end
$scope begin $ivl_for_loop8 $end
$var integer 32 =# ch [31:0] $end
$scope begin $ivl_for_loop9 $end
$var integer 32 ># h [31:0] $end
$scope begin $ivl_for_loop10 $end
$var integer 32 ?# w [31:0] $end
$scope begin $unm_blk_10 $end
$var integer 32 @# addr [31:0] $end
$upscope $end
$upscope $end
$upscope $end
$upscope $end
$scope task FP16_to_real $end
$var reg 16 A# data_in_FP16 [15:0] $end
$var real 1 B# data_out_real $end
$upscope $end
$scope task real_to_FP16 $end
$var real 1 C# in $end
$var reg 16 D# out [15:0] $end
$upscope $end
$scope task run_INT_POOL_hardware $end
$upscope $end
$scope task run_INT_POOL_software $end
$var reg 16 E# MIN_SIGNED [15:0] $end
$var integer 32 F# ih [31:0] $end
$var integer 32 G# iw [31:0] $end
$var reg 16 H# max_val [15:0] $end
$scope begin $ivl_for_loop0 $end
$var integer 32 I# ch [31:0] $end
$scope begin $ivl_for_loop1 $end
$var integer 32 J# oh [31:0] $end
$scope begin $ivl_for_loop2 $end
$var integer 32 K# ow [31:0] $end
$scope begin $ivl_for_loop3 $end
$var integer 32 L# ky [31:0] $end
$scope begin $ivl_for_loop4 $end
$var integer 32 M# kx [31:0] $end
$upscope $end
$upscope $end
$upscope $end
$upscope $end
$upscope $end
$upscope $end
$upscope $end
$enddefinitions $end
$comment Show the parameter values. $end
$dumpall
b101010 0#
b1 ,#
b10000 l"
b1000000000000000 i"
b1 S"
b1 Q"
b1 O"
b1010 L"
b1010 G"
b1 C"
b100 @"
b100 ;"
b10100 6"
b101010 1"
b1001 D
b1000000000 C
b10000 B
b1001 -
b1000000000 ,
$end
#0
$dumpvars
b0 M#
b0 L#
b0 K#
b0 J#
b0 I#
b0 H#
b0 G#
b0 F#
b0 E#
b0 D#
r0 C#
r0 B#
b0 A#
b0 @#
b0 ?#
b0 >#
b0 =#
b0 <#
b0 ;#
b0 :#
b0 9#
b0 8#
b0 7#
b0 6#
b0 5#
b0 4#
b0 3#
b0 2#
bx 1#
bx /#
1.#
bx -#
1+#
x*#
x)#
bx (#
bx '#
bx &#
bx %#
x$#
x##
0"#
bx !#
bx ~"
x}"
bx |"
bx {"
bx z"
bx y"
bx x"
bx w"
bx v"
bx u"
bx t"
bx s"
bx r"
bx q"
bx p"
bx o"
xn"
bx m"
bx k"
bx j"
bx h"
bx g"
bx f"
0e"
bx d"
xc"
xb"
bx a"
bx `"
bx _"
bx ^"
bx ]"
bx \"
bx ["
bx Z"
bx Y"
bx X"
bx W"
bx V"
bx U"
0T"
1R"
1P"
1N"
bx M"
bx K"
1J"
bx I"
bx H"
bx F"
1E"
bx D"
1B"
bx A"
bx ?"
1>"
bx ="
bx <"
bx :"
19"
bx 8"
bx 7"
bx 5"
14"
bx 3"
bx 2"
bx 0"
1/"
bx ."
bx -"
bx ,"
bx +"
bx *"
bx )"
x("
bx '"
bx &"
bx %"
bx $"
bx #"
bx ""
x!"
bx ~
bx }
x|
bx {
xz
bx y
xx
bx w
bx v
bx u
xt
bx s
xr
xq
xp
xo
xn
xm
0l
bx k
bx j
xi
xh
bx g
bx f
bx e
bx d
bx c
bx b
bx a
bx `
bx _
bx ^
bx ]
bx \
bx [
bx Z
xY
bx X
bx W
bx V
xU
xT
bx S
bx R
bx Q
bx P
bx O
bx N
bx M
bx L
bx K
bx J
bx I
bx H
bx G
bx F
bx E
bx A
bx @
bx ?
bx >
0=
1<
0;
0:
bx 9
bx 8
bx 7
bx 6
bx 5
bx 4
bx 3
bx 2
bx 1
bx 0
bx /
bx .
x+
bx *
x)
bx (
x'
bx &
bx %
x$
bx #
x"
bx !
$end
#10
b0 #
b0 >
b0 (
b0 X
b0 j
b0 -"
0'
0h
b0 %#
b0 -#
0)#
b0 h"
b0 j"
0n"
0}"
b0 '"
b0 3"
b0 w
b0 D"
b0 s
b0 I"
b0 {
b0 ="
b0 ~
b0 8"
0q
b0 !
b0 ?
0b"
0$
0$#
b0 %
b0 @
b0 V
b0 !#
b0 Z
b0 d"
b0 |"
b0 f"
1m
0c"
b0 &#
b0 /#
b0 1#
0##
0*#
b0 g"
b0 k"
b0 m"
b0 &
b0 W
b0 ~"
b0 [
b0 k
b0 {"
b0 *"
b0 0"
b0 2"
0+
0z
0U
0p
0Y
0T
0o
b0 )"
b0 5"
b0 7"
b0 y
b0 F"
b0 H"
b0 u
b0 K"
b0 M"
b0 }
b0 ?"
b0 A"
b0 ""
b0 :"
b0 <"
0"
0r
0)
1;
#20
0;
#30
1;
#40
0;
#50
1;
#60
0;
#70
1;
#80
0;
#90
0i
b11111111 '#
b10001111110111 ,"
b1111111111 %"
b1111111111 #"
0n
0t
b100000000 +"
b100000000 ."
b100000000 (#
b1000 9
b1000 Q
b1000 g
b1000 `"
b1000 z"
0x
b1000 1
b1000 I
b1000 _
b1000 X"
b1000 r"
b100 /
b100 G
b100 ]
b100 V"
b100 p"
b100000000 v
b1000 8
b1000 P
b1000 f
b1000 _"
b1000 y"
b1000 0
b1000 H
b1000 ^
b1000 W"
b1000 q"
0("
b100 .
b100 F
b100 \
b100 U"
b100 o"
b11111111111111111111111111111111 &"
b1 5
b1 M
b1 c
b1 \"
b1 v"
b11111111111111111111111111111111 $"
b1 4
b1 L
b1 b
b1 ["
b1 u"
b1 7
b1 O
b1 e
b1 ^"
b1 x"
b1 6
b1 N
b1 d
b1 ]"
b1 w"
0|
b11 3
b11 K
b11 a
b11 Z"
b11 t"
0!"
b11 2
b11 J
b11 `
b11 Y"
b11 s"
b100 I#
b1000 J#
b1000 K#
b11 L#
b11 M#
b1000 G#
b1000 F#
b101011010001111 H#
b1000000000000000 E#
b100 =#
b1000 >#
b11111111 @#
b1000 ?#
b100 :#
b1000 ;#
b1000 <#
1=
1;
#91
bx000000000000000 %
bx000000000000000 @
bx000000000000000 V
bx000000000000000 !#
bx000000000000000 Z
bx000000000000000 d"
bx000000000000000 |"
bx000000000000000 f"
b100000000 !
b100000000 ?
1b"
b1000000000000000 h"
b1000000000000000 j"
b100000000 &
b100000000 W
b100000000 ~"
b100000000 [
b100000000 k
b100000000 {"
b100000000 *"
b100000000 0"
b100000000 2"
x+
xz
1U
1p
xY
xT
xo
#100
0;
#110
1q
1)#
1l
1"#
1:
1;
#111
b1000000000000000 %
b1000000000000000 @
b1000000000000000 V
b1000000000000000 !#
b1000000000000000 Z
b1000000000000000 d"
b1000000000000000 |"
b1000000000000000 f"
b1000000000000000 g"
b1000000000000000 k"
b1000000000000000 m"
0+
0z
0Y
0T
0o
#120
0;
#130
0q
0)#
0l
0"#
0:
1;
#131
1)#
b1 ~
b1 8"
1q
1##
1*#
1"
1r
#140
0;
#150
1;
#151
b10 ~
b10 8"
b1111111111000 ,"
b0 #"
0m
b0 $"
b1 ""
b1 :"
b1 <"
#160
0;
#170
1;
#171
b0 ~
b0 8"
b1 {
b1 ="
0b"
b1111111111001 ,"
b1 #"
0U
0p
b1 $"
1!"
b10 ""
b10 :"
b10 <"
#180
0;
#190
1;
#191
b1 ~
b1 8"
b0 %"
b1111111111 ,"
b1111111111 #"
b0 &"
b1 }
b1 ?"
b1 A"
b11111111111111111111111111111111 $"
0!"
b0 ""
b0 :"
b0 <"
#200
0;
#210
1;
#211
b10 ~
b10 8"
1'
1h
b0 ,"
b0 #"
b0 $"
b1 ""
b1 :"
b1 <"
#220
0;
#230
b11010100100100 h"
b11010100100100 j"
1b"
1c"
1)
b11010100100100 S
b11010100100100 a"
b11010100100100 *
b11010100100100 A
b11010100100100 E
b11010100100100 R
1;
#231
b1 #
b1 >
b0 ~
b0 8"
b10 {
b10 ="
b1 (
b1 X
b1 j
b1 -"
b1 ,"
b1 #"
b1 $"
1!"
b10 ""
b10 :"
b10 <"
#240
0;
#250
b101111010000001 h"
b101111010000001 j"
b101111010000001 S
b101111010000001 a"
b101111010000001 *
b101111010000001 A
b101111010000001 E
b101111010000001 R
1;
#251
b0 #
b0 >
b1 ~
b1 8"
0'
0h
b0 (
b0 X
b0 j
b0 -"
b11010100100100 %
b11010100100100 @
b11010100100100 V
b11010100100100 !#
b11010100100100 Z
b11010100100100 d"
b11010100100100 |"
b11010100100100 f"
b1 %"
b10000000111 ,"
b1111111111 #"
b11010100100100 g"
b11010100100100 k"
b11010100100100 m"
b1 &"
1|
b10 }
b10 ?"
b10 A"
b11111111111111111111111111111111 $"
0!"
b0 ""
b0 :"
b0 <"
#260
0;
#270
b11010100100100 h"
b11010100100100 j"
0b"
0c"
0)
1;
#271
b1000 #
b1000 >
b1000 (
b1000 X
b1000 j
b1000 -"
b10 ~
b10 8"
b101111010000001 h"
b101111010000001 j"
1'
1h
b101111010000001 %
b101111010000001 @
b101111010000001 V
b101111010000001 !#
b101111010000001 Z
b101111010000001 d"
b101111010000001 |"
b101111010000001 f"
b1000 ,"
b0 #"
b101111010000001 g"
b101111010000001 k"
b101111010000001 m"
b0 $"
b1 ""
b1 :"
b1 <"
#280
0;
#290
1)
b1110001100000001 S
b1110001100000001 a"
b1110001100000001 *
b1110001100000001 A
b1110001100000001 E
b1110001100000001 R
1;
#291
b1 s
b1 I"
b1001 #
b1001 >
b0 ~
b0 8"
b0 {
b0 ="
b1001 (
b1001 X
b1001 j
b1001 -"
b1001 ,"
b1 #"
1n
b1 $"
1!"
b10 ""
b10 :"
b10 <"
#300
0;
#310
b1100110100001101 S
b1100110100001101 a"
b1100110100001101 *
b1100110100001101 A
b1100110100001101 E
b1100110100001101 R
1;
#311
0'
0h
b1 %#
b1 -#
b0 #
b0 >
b1 ~
b1 8"
b0 (
b0 X
b0 j
b0 -"
1$
1$#
b1111111111 %"
b1111111111000 ,"
b0 #"
0n
1m
1Y
1T
1o
b100000001 +"
b100000001 ."
b1 u
b1 K"
b1 M"
b11111111111111111111111111111111 &"
0|
b0 }
b0 ?"
b0 A"
b0 $"
0!"
b0 ""
b0 :"
b0 <"
#320
0;
#330
0)
1;
#331
b10 ~
b10 8"
b100000001 !
b100000001 ?
1b"
b1000000000000000 h"
b1000000000000000 j"
0$
0$#
b1111111111001 ,"
b1 #"
0m
b1 &#
b1 /#
b1 1#
b100000001 &
b100000001 W
b100000001 ~"
b100000001 [
b100000001 k
b100000001 {"
b100000001 *"
b100000001 0"
b100000001 2"
1U
1p
0Y
0T
0o
b1 $"
b1 ""
b1 :"
b1 <"
#340
0;
#350
1;
#351
b0 ~
b0 8"
b1 {
b1 ="
b1000000000000000 %
b1000000000000000 @
b1000000000000000 V
b1000000000000000 !#
b1000000000000000 Z
b1000000000000000 d"
b1000000000000000 |"
b1000000000000000 f"
0b"
b1000000000000000 h"
b1000000000000000 j"
b1111111111010 ,"
b10 #"
b1000000000000000 g"
b1000000000000000 k"
b1000000000000000 m"
0U
0p
b10 $"
1!"
b10 ""
b10 :"
b10 <"
#360
0;
#370
1;
#371
1'
1h
b1 ~
b1 8"
b0 %"
b0 ,"
b0 #"
b0 &"
b1 }
b1 ?"
b1 A"
b0 $"
0!"
b0 ""
b0 :"
b0 <"
#380
0;
#390
b11010100100100 h"
b11010100100100 j"
1b"
1c"
1)
b11010100100100 S
b11010100100100 a"
b11010100100100 *
b11010100100100 A
b11010100100100 E
b11010100100100 R
1;
#391
b1 #
b1 >
b10 ~
b10 8"
b1 (
b1 X
b1 j
b1 -"
b1 ,"
b1 #"
b1 $"
b1 ""
b1 :"
b1 <"
#400
0;
#410
b101111010000001 h"
b101111010000001 j"
b101111010000001 S
b101111010000001 a"
b101111010000001 *
b101111010000001 A
b101111010000001 E
b101111010000001 R
1;
#411
b10 #
b10 >
b0 ~
b0 8"
b10 {
b10 ="
b10 (
b10 X
b10 j
b10 -"
b11010100100100 %
b11010100100100 @
b11010100100100 V
b11010100100100 !#
b11010100100100 Z
b11010100100100 d"
b11010100100100 |"
b11010100100100 f"
b10 ,"
b10 #"
b11010100100100 g"
b11010100100100 k"
b11010100100100 m"
b10 $"
1!"
b10 ""
b10 :"
b10 <"
#420
0;
#430
0b"
b11010100100100 h"
b11010100100100 j"
0c"
b1101011000001001 S
b1101011000001001 a"
b1101011000001001 *
b1101011000001001 A
b1101011000001001 E
b1101011000001001 R
1;
#431
b1000 #
b1000 >
b1 ~
b1 8"
b101111010000001 h"
b101111010000001 j"
b1000 (
b1000 X
b1000 j
b1000 -"
b101111010000001 %
b101111010000001 @
b101111010000001 V
b101111010000001 !#
b101111010000001 Z
b101111010000001 d"
b101111010000001 |"
b101111010000001 f"
b1 %"
b1000 ,"
b0 #"
b101111010000001 g"
b101111010000001 k"
b101111010000001 m"
b1 &"
1|
b10 }
b10 ?"
b10 A"
b0 $"
0!"
b0 ""
b0 :"
b0 <"
#440
0;
#450
b1110001100000001 S
b1110001100000001 a"
b1110001100000001 *
b1110001100000001 A
b1110001100000001 E
b1110001100000001 R
1;
#451
b1001 #
b1001 >
b10 ~
b10 8"
b1001 (
b1001 X
b1001 j
b1001 -"
b1001 ,"
b1 #"
b1 $"
b1 ""
b1 :"
b1 <"
#460
0;
#470
b1100110100001101 S
b1100110100001101 a"
b1100110100001101 *
b1100110100001101 A
b1100110100001101 E
b1100110100001101 R
1;
#471
b10 s
b10 I"
b1010 #
b1010 >
b0 ~
b0 8"
b0 {
b0 ="
b1010 (
b1010 X
b1010 j
b1010 -"
b1010 ,"
b10 #"
1n
b10 $"
1!"
b10 ""
b10 :"
b10 <"
#480
0;
#490
b1111000101110110 S
b1111000101110110 a"
b1111000101110110 *
b1111000101110110 A
b1111000101110110 E
b1111000101110110 R
1;
#491
0'
0h
b10 %#
b10 -#
b0 #
b0 >
b1 ~
b1 8"
b0 (
b0 X
b0 j
b0 -"
1$
1$#
b1111111111 %"
b1111111111001 ,"
b1 #"
0n
1m
1Y
1T
1o
b100000010 +"
b100000010 ."
b10 u
b10 K"
b10 M"
b11111111111111111111111111111111 &"
0|
b0 }
b0 ?"
b0 A"
b1 $"
0!"
b0 ""
b0 :"
b0 <"
#500
0;
#510
0)
1;
#511
b10 ~
b10 8"
b100000010 !
b100000010 ?
1b"
b1000000000000000 h"
b1000000000000000 j"
0$
0$#
b1111111111010 ,"
b10 #"
0m
b10 &#
b10 /#
b10 1#
b100000010 &
b100000010 W
b100000010 ~"
b100000010 [
b100000010 k
b100000010 {"
b100000010 *"
b100000010 0"
b100000010 2"
1U
1p
0Y
0T
0o
b10 $"
b1 ""
b1 :"
b1 <"
#520
0;
#530
1;
#531
b0 ~
b0 8"
b1 {
b1 ="
b1000000000000000 %
b1000000000000000 @
b1000000000000000 V
b1000000000000000 !#
b1000000000000000 Z
b1000000000000000 d"
b1000000000000000 |"
b1000000000000000 f"
0b"
b1000000000000000 h"
b1000000000000000 j"
b1111111111011 ,"
b11 #"
b1000000000000000 g"
b1000000000000000 k"
b1000000000000000 m"
0U
0p
b11 $"
1!"
b10 ""
b10 :"
b10 <"
#540
0;
#550
1;
#551
b1 #
b1 >
b1 (
b1 X
b1 j
b1 -"
1'
1h
b1 ~
b1 8"
b0 %"
b1 ,"
b1 #"
b0 &"
b1 }
b1 ?"
b1 A"
b1 $"
0!"
b0 ""
b0 :"
b0 <"
#560
0;
#570
b101111010000001 h"
b101111010000001 j"
1b"
1c"
1)
b101111010000001 S
b101111010000001 a"
b101111010000001 *
b101111010000001 A
b101111010000001 E
b101111010000001 R
1;
#571
b10 #
b10 >
b10 ~
b10 8"
b10 (
b10 X
b10 j
b10 -"
b10 ,"
b10 #"
b10 $"
b1 ""
b1 :"
b1 <"
#580
0;
#590
b1101011000001001 h"
b1101011000001001 j"
b1101011000001001 S
b1101011000001001 a"
b1101011000001001 *
b1101011000001001 A
b1101011000001001 E
b1101011000001001 R
1;
#591
b101111010000001 h"
b101111010000001 j"
b11 #
b11 >
b0 ~
b0 8"
b10 {
b10 ="
0b"
b11 (
b11 X
b11 j
b11 -"
b101111010000001 %
b101111010000001 @
b101111010000001 V
b101111010000001 !#
b101111010000001 Z
b101111010000001 d"
b101111010000001 |"
b101111010000001 f"
0c"
b11 ,"
b11 #"
b101111010000001 g"
b101111010000001 k"
b101111010000001 m"
b11 $"
1!"
b10 ""
b10 :"
b10 <"
#600
0;
#610
b101011001100011 S
b101011001100011 a"
b101011001100011 *
b101011001100011 A
b101011001100011 E
b101011001100011 R
1;
#611
b1001 #
b1001 >
b1 ~
b1 8"
b1001 (
b1001 X
b1001 j
b1001 -"
b1 %"
b1001 ,"
b1 #"
b1 &"
1|
b10 }
b10 ?"
b10 A"
b1 $"
0!"
b0 ""
b0 :"
b0 <"
#620
0;
#630
b1100110100001101 S
b1100110100001101 a"
b1100110100001101 *
b1100110100001101 A
b1100110100001101 E
b1100110100001101 R
1;
